[
	{
		"message": "1 starts a fire."
	},
	{
		"message": "1 sets up camp for the night."
	},
	{
		"message": "1 and 2 tell stories about themselves to each other."
	},
	{
		"message": "1 and 2 sleep in shifts."
	},
	{
		"message": "1 screams for help."
	},
	{
		"message": "1 does \"the thing\"."
	},
	{
		"message": "1 does not do \"the thing\", and receives a nuke from orbit for (their/1) lack of effort.",
		"killed": 1,
		"deathType": "environmental"
	},
	{
		"message": "1 stays awake all night."
	},
	{
		"message": "1 passes out from exhaustion."
	},
	{
		"message": "1, 2, and 3 discuss the games and what might happen in the morning."
	},
	{
		"message": "1 cries (themselves/1) to sleep."
	},
	{
		"message": "1 and 2 talk about the tributes still alive."
	},
	{
		"message": "1 is awoken by nightmares."
	},
	{
		"message": "1 thinks about home."
	},
	{
		"message": "1 quietly hums."
	},
	{
		"message": "1, 2, and 3 cheerfully sing songs together."
	},
	{
		"message": "1 and 2 hold hooves."
	},
	{
		"message": "1 convinces 2 to snuggle with (them/1)."
	},
	{
		"message": "1 questions (their/1) sanity."
	},
	{
		"message": "1 writes a shitpost."
	},
	{
		"message": "1 stays up all night, foiling 2's sabotage plans."
	},
	{
		"message": "1 has a dream that Seer could win. But then (they/1/wake/wakes) up and that dream ends."
	},
	{
		"message": "1 reminds Rob to make the Reddit link."
	},
	{
		"message": "1 talks to (their/1) $n1 all night long.",
		"items": [
			{
				"id": 1,
				"owner": 1,
				"tags": ["cardboard seer buddy"]
			}
		]
	},
	{
		"message": "1 stargazes, and sees the shape of (their/1) $n1 in the stars.",
		"items": [
			{
				"id": 1,
				"owner": 1,
				"tags": ["any"]
			}
		]
	},
	{
		"message": "1 spends the night reading \"Chamomile\" on (their/1) phone."
	},
	{
		"message": "1 sharpens (their/1) $n1.",
		"items": [
			{
				"id": 1,
				"owner": 1,
				"tags": ["weapon", "slashing"]
			}
		]
	},
	{
		"message": "1 tries to sleep, but something is poking (them/1) in the back. (They/1/reach/reaches) behind (themselves/1/and pull/and pulls) out a $n1.",
		"items": [
			{
				"id": 1,
				"tags": ["any"]
			}
		],
		"inventory_changes": [
			{
				"item": 1,
				"to": 1
			}
		]
	},
	{
		"message": "1 finds a nice spot to relax for the night and eats (their/1) $n1. It's delicious!",
		"items": [
			{
				"id": 1,
				"owner": 1,
				"tags": ["edible"]
			}
		],
		"inventory_changes": [
			{
				"from": 1,
				"item": 1
			}
		]
	},
	{
		"message": "1 finds a nice spot to relax for the night and eats (their/1) $n1. It's delicious! And poisonous. Oops.",
		"killed": 1,
		"deathType": "accidental",
		"items": [
			{
				"id": 1,
				"owner": 1,
				"tags": ["unidentified", "poison"]
			}
		],
		"inventory_changes": [
			{
				"from": 1,
				"item": 1
			}
		]
	},
	{
		"message": "1 finds a nice spot to relax for the night and eats (their/1) $n1. ...Why does everything suddenly look so strange?",
		"items": [
			{
				"id": 1,
				"owner": 1,
				"tags": ["unidentified", "weed"]
			}
		],
		"inventory_changes": [
			{
				"from": 1,
				"item": 1
			}
		]
	},
	{
		"message": "1 unknowingly eats toxic berries.",
		"killed": 1,
		"deathType": "accidental"
	},
	{
		"message": "1 misread (their/1) travel guide and thought it said the fruit they ate were *boison*berries, not *poison* berries. Ah well, live and learn... or in 1's case, die and learn?",
		"killed": 1,
		"deathType": "accidental"
	},
	{
		"message": "1 falls into a frozen lake and drowns.",
		"killed": 1,
		"deathType": "accidental"
	},
	{
		"message": "1 dies from hypothermia.",
		"killed": 1,
		"deathType": "accidental"
	},
	{
		"message": "1 and 2 track down and kill 3.",
		"killers": [1, 2],
		"killed": 3,
		"deathType": "murder"
	},
	{
		"message": "1 falls asleep in the voice chat and dies of shame.",
		"killed": 1,
		"deathType": "accidental"
	},
	{
		"message": "1 thinks the mods are asleep and says a banned word... and is subsequently banned.",
		"killed": 1,
		"deathType": "accidental"
	},
	{
		"message": "1 didn't expect the Spanish Inquisition!",
		"killed": 1,
		"deathType": "accidental"
	},
	{
		"message": "1 falls asleep in the voice chat and is banned from the world of the living.",
		"killed": 1,
		"deathType": "accidental"
	},
	{
		"message": "1 tries to find a tasty rhyme for \"lore\" and is killed by a bot for (their/1) trouble.",
		"killed": 1,
		"deathType": "environmental"
	},
	{
		"message": "1 falls asleep on a landmine.",
		"killed": 1,
		"deathType": "accidental"
	},
	{
		"message": "1 goes over the word limit and is voided from existence.",
		"killed": 1,
		"deathType": "environmental"
	},
	{
		"message": "1 calls 2 a butthead, and 2 dies of shame.",
		"killers": 1,
		"killed": 2,
		"deathType": "murder"
	},
	{
		"message": "1 wanders off to look up pony pictures and forfeits (their/1) life.",
		"killed": 1,
		"deathType": "environmental"
	},
	{
		"message": "1 set up (their/1) sleeping bag on an anthill and wakes up, very briefly, in much pain.",
		"killed": 1,
		"deathType": "environmental"
	},
	{
		"message": "1 and 2 play Truth or Dare. 2 dares 1 to die. Easiest kill in the game.",
		"killers": 2,
		"killed": 1,
		"deathType": "murder"
	},
	{
		"message": "1 and 2 play Truth or Dare. 1 has to tell the truth, but 2 can't handle the truth!",
		"killers": 1,
		"killed": 2,
		"deathType": "murder"
	},
	{
		"message": "1 looks in a mirror. That isn't (them/1), (they/1/realize/realizes), and dies of horror.",
		"killed": 1,
		"deathType": "accidental"
	},
	{
		"message": "1 gets very hungry, and reaches into (their/1) pocket for something to eat. Sadly, (their/1) $n1 isn't nearly as tasty as (they/1) had hoped, but (they/1) did get a belly full... of explosions!",
		"items": [
			{
				"id": 1,
				"owner": 1,
				"tags": ["explosive"]
			}
		],
		"killed": 1,
		"deathType": "accidental"
	},
	{
		"message": "1 tries to sleep, but something is poking (them/1) in the back. (They/1/decide/decides) to ignore it, and dies when the $n1 kills (them/1).",
		"items": [
			{
				"id": 1,
				"tags": ["weapon"]
			}
		],
		"killed": 1,
		"deathType": "environmental"
	},
	{
		"message": "1 plays catch with 2 and (their/1) $n1, but 2 doesn't have good enough reflexes to survive the game.",
		"items": [
			{
				"id": 1,
				"owner": 1,
				"tags": ["weapon", "thrown"]
			}
		],
		"killer": 1,
		"killed": 2,
		"deathType": "accidental"
	},
	{
		"message": "1 plays catch with 2 and (their/1) $n1, but 1 doesn't have good enough reflexes to survive the game.",
		"items": [
			{
				"id": 1,
				"owner": 1,
				"tags": ["weapon", "thrown"]
			}
		],
		"killer": 2,
		"killed": 1,
		"deathType": "accidental"
	},
	{
		"message": "1 plays catch with 2 and (their/1) $n1. 2 just didn't know they were playing a game, and 1 may or may not have planned it that way.",
		"items": [
			{
				"id": 1,
				"owner": 1,
				"tags": ["weapon", "thrown"]
			}
		],
		"killer": 1,
		"killed": 2,
		"deathType": "murder"
	},
	{
		"message": "1 discovers a river... and accidentally falls into it in the darkness! Upon pulling (themselves/1) out, (they/1/find/finds) (their/1) $n1 to be missing.",
		"items": [
			{
				"id": 1,
				"owner": 1,
				"tags": ["any"]
			}
		],
		"inventory_changes": [
			{
				"item": 1,
				"from": 1
			}
		]
	},
	{
		"message": "1 eats all the candy out of (their/1) $n1.",
		"items": [
			{
				"id": 1,
				"owner": 1,
				"tags": ["pillowcase full of Nightmare Night candy"]
			},
			{
				"id": 2,
				"tags": ["pillowcase"]
			}
		],
		"inventory_changes": [
			{
				"item": 1,
				"from": 1
			},
			{
				"item": 2,
				"to": 1
			}
		]
	},
	{
		"message": "1 goes trick-or-treating and ends up with $s1!",
		"items": [
			{
				"id": 1,
				"tags": ["pillowcase full of Nightmare Night candy"]
			}
		],
		"inventory_changes": [
			{
				"item": 1,
				"to": 1
			}
		]
	},
	{
		"message": "1 shares (their/1) $n1 with 2.",
		"items": [
			{
				"id": 1,
				"owner": 1,
				"tags": ["pillowcase full of Nightmare Night candy"]
			},
			{
				"id": 2,
				"tags": ["pillowcase"]
			}
		],
		"inventory_changes": [
			{
				"item": 1,
				"from": 1
			},
			{
				"item": 2,
				"to": 1
			}
		]
	},
	{
		"message": "1 dons (their/1) $n1, dressing up like a spooky, scary ghost.",
		"items": [
			{
				"id": 1,
				"owner": 1,
				"tags": ["pillowcase"]
			}
		]
	},
	{
		"message": "1 dons (their/1) $n1, dressing up like a spooky, scary ghost. 2 sees (them/1) and dies of fright.",
		"items": [
			{
				"id": 1,
				"owner": 1,
				"tags": ["pillowcase"]
			}
		],
		"killer": 1,
		"killed": 2,
		"deathType": "murder"
	},
	{
		"message": "1 uses (their/1) $n1 to smother 2 in (their/2) sleep.",
		"items": [
			{
				"id": 1,
				"owner": 1,
				"tags": ["pillowcase"]
			}
		],
		"killer": 1,
		"killed": 2,
		"deathType": "murder"
	},
	{
		"message": "1 goes foraging in the night and finds some $p1.",
		"items": [
			{
				"id": 1,
				"quantity": 3,
				"tags": ["forage"]
			}
		],
		"inventory_changes": [
			{
				"item": 1,
				"to": 1
			}
		]
	},
	{
		"message": "1 receives a lunchbox containing $s1 and $s2 from an unknown sponsor.",
		"items": [
			{
				"id": 1,
				"tags": ["edible"]
			},
			{
				"id": 1,
				"tags": ["potable"]
			}
		],
		"inventory_changes": [
			{
				"item": 1,
				"to": 1
			},
			{
				"item": 2,
				"to": 1
			}
		]
	},
	{
		"message": "1's $n1 walks into a bar and orders a beer. The bartender says: \"We don't serve food here.\"",
		"items": [
			{
				"id": 1,
				"owner": 1,
				"tags": ["edible"]
			}
		]
	}
]
