[
	{
		"message": "1 sets 2 on fire with $s1.",
		"killers": 1,
		"killed": 2,
		"deathType": "murder",
		"items": [
			{
				"id": 1,
				"owner": 1,
				"tags": ["flammable"]
			}
		],
		"inventory_changes": [
			{
				"from": 1,
				"item": 1
			}
		]
	},
	{
		"message": "1 dies of dysentery.",
		"killed": 1,
		"deathType": "environmental"
	},
	{
		"message": "1 accidentally steps on a landmine.",
		"killed": 1,
		"deathType": "environmental"
	},
	{
		"message": "1 tracks down and kills 2.",
		"killers": 1,
		"killed": 2,
		"deathType": "murder"
	},
	{
		"message": "1 finds $s1.",
		"items": [
			{
				"id": 1,
				"tags": ["any"]
			}
		],
		"inventory_changes": [
			{
				"to": 1,
				"item": 1
			}
		]
	},
	{
		"message": "1 finds a cache of $p1 hidden in the dirt.",
		"items": [
			{
				"id": 1,
				"tags": ["any"],
				"quantity": 5
			}
		],
		"inventory_changes": [
			{
				"to": 1,
				"item": 1
			}
		]
	},
	{
		"message": "1 sets off $s1, killing 2.",
		"killers": 1,
		"killed": 2,
		"deathType": "murder",
		"items": [
			{
				"id": 1,
				"owner": 1,
				"tags": ["explosive"],
				"quantity": 1
			}
		],
		"inventory_changes": [
			{
				"from": 1,
				"item": 1
			}
		]
	},
	{
		"message": "1 stabs 2 with $s1.",
		"killers": 1,
		"killed": 2,
		"deathType": "murder",
		"items": [
			{
				"id": 1,
				"owner": 1,
				"tags": ["melee", "piercing"]
			}
		]
	},
	{
		"message": "1 stabs 2 in the back with $s1.",
		"killers": 1,
		"killed": 2,
		"deathType": "murder",
		"items": [
			{
				"id": 1,
				"owner": 1,
				"tags": ["melee", "piercing"]
			}
		]
	},
	{
		"message": "1 bonks 2 over the head with $s1.",
		"killers": 1,
		"killed": 2,
		"deathType": "murder",
		"items": [
			{
				"id": 1,
				"owner": 1,
				"tags": ["melee", "blunt"]
			}
		]
	},
	{
		"message": "1 shoots 2 with (their/1) $n1.",
		"killers": 1,
		"killed": 2,
		"deathType": "murder",
		"items": [
			{
				"id": 1,
				"owner": 1,
				"tags": ["ranged"]
			}
		]
	},
	{
		"message": "1 throws (their/1) $n1 at 2, killing (them/2).",
		"killers": 1,
		"killed": 2,
		"deathType": "murder",
		"items": [
			{
				"id": 1,
				"owner": 1,
				"tags": ["thrown"]
			}
		]
	},
	{
		"message": "1 finds $s1 with a little bow on it, and decides to keep it for (themselves/1).",
		"items": [
			{
				"id": 1,
				"tags": ["any"]
			}
		],
		"inventory_changes": [
			{
				"item": 1,
				"to": 1
			}
		]
	},
	{
		"message": "1 kills 2 for (their/2) $n1.",
		"killers": 1,
		"killed": 2,
		"deathType": "murder",
		"items": [
			{
				"owner": 2,
				"id": 1,
				"tags": ["any"],
				"quantity": 1
			}
		],
		"inventory_changes": [
			{
				"to": 1,
				"from": 2,
				"item": 1
			}
		]
	},
	{
		"message": "1 receives $s1 from an unknown sponsor.",
		"items": [
			{
				"id": 1,
				"tags": ["any"],
				"quantity": 1
			}
		],
		"inventory_changes": [
			{
				"to": 1,
				"item": 1
			}
		]
	},
	{
		"message": "1 receives a letter from an unknown sponsor. It reads \"Haha, this is a prank. Good luck!\"."
	},
	{
		"message": "1 goes to hug 2, but 2 grabs 1's $n1 and kills (them/1) with it.",
		"items": [
			{
				"id": 1,
				"owner": 1,
				"tags": ["weapon", "melee"]
			}
		],
		"inventory_changes": [
			{
				"from": 1,
				"item": 1,
				"to": 2
			}
		],
		"killers": [2],
		"killed": [1],
		"deathType": "murder"
	},
	{
		"message": "1 and 2 go fishing. 1 catches $s1, but 2 decides it had to be (theirs/2), and they fight for it. 1 wins!",
		"items": [
			{
				"id": 1,
				"tags": ["weapon"]
			}
		],
		"inventory_changes": [
			{
				"item": 1,
				"to": 1
			}
		]
	},
	{
		"message": "1 and 2 go fishing. 1 catches $s1, but 2 decides it had to be (theirs/2), and they fight for it. 2 wins!",
		"items": [
			{
				"id": 1,
				"tags": ["weapon"]
			}
		],
		"inventory_changes": [
			{
				"item": 1,
				"to": 2
			}
		]
	},
	{
		"message": "1 uses (their/1) $n1 to try to backstab 2, but 3 intervenes and kills (them/1) with (their/3) $n2. 2 takes (their/1) $n1, adding insult to injury.",
		"items": [
			{
				"id": 1,
				"owner": 1,
				"tags": ["weapon"]
			},
			{
				"id": 2,
				"owner": 3,
				"tags": ["weapon"]
			}
		],
		"inventory_changes": [
			{
				"item": 1,
				"from": 1,
				"to": 2
			}
		],
		"killers": [3],
		"killed": [1],
		"deathType": "murder"
	},
	{
		"message": "1 and 2 decide to trade! 1 walks home with a well-loved $n2, while 2 is now the proud owner of (their/2) very own $n1.",
		"items": [
			{
				"id":1,
				"owner": 1,
				"tags": ["any"]
			},
			{
				"id": 2,
				"owner": 2,
				"tags": ["any"]
			}
		],
		"inventory_changes": [
			{
				"item": 1,
				"from": 1,
				"to": 2
			},
			{
				"item": 2,
				"from": 2,
				"to": 1
			}
		]
	},
	{
		"message": "1 and 2 decide to trade! 2 decides the trade isn't fair, though, and kills 1 with (their/2) $n2 before taking 1's $n1.",
		"items": [
			{
				"id":1,
				"owner": 1,
				"tags": ["any"]
			},
			{
				"id": 2,
				"owner": 2,
				"tags": ["weapon"]
			}
		],
		"inventory_changes": [
			{
				"item": 1,
				"from": 1,
				"to": 2
			}
		],
		"killers": [2],
		"killed": [1],
		"deathType": "murder"
	},
	{
		"message": "1 and 2 decide to trade! 1 decides the trade isn't fair, though, and kills 2 with (their/1) $n1 before taking 2's $n2.",
		"items": [
			{
				"id":1,
				"owner": 1,
				"tags": ["any"]
			},
			{
				"id": 2,
				"owner": 2,
				"tags": ["weapon"]
			}
		],
		"inventory_changes": [
			{
				"item": 2,
				"from": 2,
				"to": 1
			}
		],
		"killers": [1],
		"killed": [2],
		"deathType": "murder"
	},
	{
		"message": "1 runs up to 2 and stuffs $n1 in (their/2) mouth before running away!",
		"items": [
			{
				"id": 1,
				"tags": ["flowers"]
			}
		],
		"inventory_changes": [
			{
				"item": 1,
				"to": 2
			}
		]
	},
	{
		"message": "1 and 2 go fishing. 1 catches $s1, but 2 decided it has to be (theirs/2), and they fight for it. After a few moments, they realize that there are actually two $p1, and decide to share.",
		"items": [
			{
				"id": 1,
				"tags": ["weapon"]
			}
		],
		"inventory_changes": [
			{
				"item": 1,
				"to": 2
			},
			{
				"item": 1,
				"to": 1
			}
		]
	},
	{
		"message": "1 got $s1! 2 got $s2! 3 got some $p3! 4 got $s4! And 5... 5 got a $n5.",
		"items": [
			{
				"id": 1,
				"tags": ["any"]
			},
			{
				"id": 2,
				"tags": ["weapon"]
			},
			{
				"id": 3,
				"tags": ["edible"]
			},
			{
				"id": 4,
				"tags": ["tree forage"]
			},
			{
				"id": 5,
				"tags": ["rock"]
			}
		],
		"inventory_changes": [
			{
				"item": 1,
				"to": 2
			},
			{
				"item": 2,
				"to": 2
			},
			{
				"item": 3,
				"to": 3
			},
			{
				"item": 4,
				"to": 4
			},
			{
				"item": 5,
				"to": 5
			}
		]
	},
	{
		"message": "1's $n1 is no match for 2's $n2. To the victor goes 1's poor $n1!",
		"items": [
			{
				"id": 1,
				"owner": 1,
				"tags": ["any"]
			},
			{
				"id": 2,
				"owner": 2,
				"tags": ["weapon"]
			}
		],
		"inventory_changes": [
			{
				"item": 1,
				"from": 1,
				"to": 2
			}
		],
		"killers": [2],
		"killed": [1],
		"deathType": "murder"
	},
	{

		"message": "1 has (their/1) license to live revoked.",
		"killed": 1,
		"deathType": "environmental"
	},
	{
		"message": "1 plants (their/1) $n1 to see what would grow. After tenderly watering it, (they/1/are/is) delighted to see $s2 pop out of the ground!",
		"items": [
			{	
				"id": 1,
				"owner": 1,
				"tags": ["any"]
			},
			{
				"id": 2,
				"tags": ["supplies"]
			}
		],
		"inventory_changes": [
			{
				"item": 1,
				"from": 1
			},
			{
				"item":2,
				"to": 1
			}
		]
	},
	{
		"message": "1 sets 2's $n1 on fire using (their/1) $n2, burning 2 along with it!",
		"items": [
			{ 
				"id": 1,
				"owner": 2,
				"tags": ["any"]
			},
			{
				"id": 2,
				"owner": 1,
				"tags": ["flammable"]
			}
		],
		"inventory_changes": [
			{
				"item": 1,
				"from": 2
			},
			{
				"item": 2,
				"from": 1
			}
		],
		"killers": 1,
		"killed": 2,
		"deathType": "murder"
	}, 
	{
		"message": "1 sets 2's $n1 on fire using (their/1) $n2, but 2 gets away safely.",
		"items": [
			{ 
				"id": 1,
				"owner": 2,
				"tags": ["any"]
			},
			{
				"id": 2,
				"owner": 1,
				"tags": ["flammable"]
			}
		],
		"inventory_changes": [
			{
				"item": 1,
				"from": 2
			},
			{
				"item": 2,
				"from": 1
			}
		]
	},
	{
		"message": "1 makes 2 choke on (their/1) $n1.",
		"items": [
			{
				"id": 1,
				"owner": 1,
				"tags": ["any"]
			}
		],
		"killers": 1,
		"killed": 2,
		"deathType": "murder"
	},
	{
		"message": "1 carves a little heart into 2 with (their/1) $n1. It still kills (them/2), but the thought is nice... sort of.",
		"items": [
			{
				"id": 1,
				"owner": 1,
				"tags": ["weapon", "slashing"]
			}
		],
		"killers": 1,
		"killed": 2,
		"deathType": "murder"
	},
	{
		"message": "1 gets caught in (their/1) own trap and calls for help. 2 comes to the rescue! (They/2/use/uses) (their/2) trusty $n1 to try to free 1, but (they/2/miss and accidentally kill/misses and accidentally kills) 1. Whoops.",
		"items": [
			{
				"id": 1,
				"owner": 2,
				"tags": ["weapon", "slashing"]
			}
		],
		"killers": 2,
		"killed": 1,
		"deathType": "accidental"
	},
	{
		"message": "1 gets caught in (their/1) own trap and calls for help. 2 comes to the rescue! (They/2/use/uses) (their/2) trusty $n1 to try to free 1, but (they/2/eventually give/eventually gives) up, leaving 1 wiggling helplessly.",
		"items": [
			{
				"id": 1,
				"owner": 2,
				"tags": ["weapon", "slashing"]
			}
		]
	},
	{
		"message": "1 asks 2 if (they/2) can help (them/1) get (their/1) ears pierced. 2 is happy to help, but (their/2) $n1 is much better at piercing just about everything but 1's ears.",
		"items": [
			{
				"id": 1,
				"owner": 2,
				"tags": ["weapon", "piercing"]
			}
		],
		"killers": 2,
		"killed": 1,
		"deathType": "accidental"
	},
	{
		"message": "1 asks 2 if (they/2) can help patch (them/1) up with (their/1) $n1. 2 proceeds to show 1 why (they/2) lost (their/2) medical license.",
		"items": [
			{
				"id": 1,
				"owner": 1,
				"tags": ["medicine"]
			}
		],
		"killers": 2,
		"killed": 1,
		"deathType": "murder"
	},
	{
		"message": "1 tries to improve (their/1) $n1, but it falls apart!",
		"items": [
			{
				"id": 1,
				"owner": 1,
				"tags": ["makeshift"]
			}
		],
		"inventory_changes": [
			{
				"item": 1,
				"from": 1
			}
		]
	},
	{
		"message": "1 tries to improve (their/1) $n1, and somehow turns it into $s2!",
		"items": [
			{
				"id": 1,
				"owner": 1,
				"tags": ["makeshift"]
			},
			{
				"id": 2,
				"tags": ["weapon"]
			}
		],
		"inventory_changes": [
			{
				"item": 1,
				"from": 1
			},
			{
				"item": 2,
				"to": 1
			}
		]
	},
    {
		"message": "1 reminds Silent Whisper that their contest time is up."
	},
	{
		"message": "1 finds $s1 with a little bow on it, and is about to gift it to 2 when (they/1/see/sees) that 2 already found a neatly-wrapped $n2.",
		"items": [
			{
				"id": 1,
				"tags": ["any"]
			},
			{
				"id": 2,
				"tags": ["weapon"]
			}
		],
		"inventory_changes": [
			{
				"item": 1,
				"to": 1
			},
			{
				"item": 2,
				"to": 2
	    	}
		]
	},
	{
		"message": "1 finds $s1 with a little bow on it, and gives it to 2. 2 surprises (them/1) with a brand-new $n2 (they/2) found in a tree!",
		"items": [
			{
				"id": 1,
				"tags": ["any"]
			},
			{
				"id": 2,
				"tags": ["weapon"]
			}
		],
		"inventory_changes": [
			{
				"item": 1,
				"to": 2
			},
			{
				"item": 2,
				"to": 1
			}
		]
	},
	{
		"message": "1 uses (their/1) $n1 to kill 2 with the power of friendship!",
		"killers": 1,
		"killed": 2,
		"deathType": "murder",
		"items": [
			{
				"id": 1,
				"owner": 1,
				"tags": ["friendship bracelet"]
			}
		]
	},
	{
		"message": "1 gave 2 (their/1) heart, but then 2 turned around... and broke more than 1's heart!",
		"killers": 2,
		"killed": 1,
		"deathType": "murder"
	},
	{
		"message": "1 opens (their/1) $n1 and finds $s1 inside!",
		"items": [
			{
				"id": 1,
				"owner": 1,
				"tags": ["dirtjar"],
				"quantity": 1
			},
			{
				"id": 1,
				"tags": ["any"],
				"quantity": 1
			}
		],
		"inventory_changes": [
			{
				"to": 1,
				"item": 2
			},
			{
				"from": 1,
				"item": 1
			}
		]
	}
]
