[
	{
		"name": "canteen of clean water",
		"plural": "canteens of clean water",
		"article": "a",
		"tags": ["potable", "supplies", "small"]
	},
	{
		"name": "flask of green tea",
		"plural": "flasks of green tea",
		"article": "a",
		"tags": ["potable", "supplies", "small"]
	},
	{
		"name": "chicken nugget",
		"plural": "chicken nuggets",
		"article": "a",
		"tags": ["edible", "chicken nuggets"]
	},
	{
		"name": "unidentified fruit",
		"plural": "unidentified fruits",
		"article": "an",
		"tags": ["unidentified", "poison", "tree forage"]
	},
	{
		"name": "unidentified fruit",
		"plural": "unidentified fruits",
		"article": "an",
		"tags": ["unidentified", "edible", "tree forage"]
	},
	{
		"name": "flowers",
		"plural": "flowers",
		"article": "some",
		"tags": ["flowers"]
	},
	{
		"name": "granola bar",
		"plural": "granola bars",
		"article": "a",
		"tags": ["edible", "supplies", "small"]
	},
	{
		"name": "first aid kit",
		"plural": "first aid kits",
		"article": "a",
		"tags": ["medicine", "supplies", "small"]
	},
	{
		"name": "tarp",
		"plural": "tarps",
		"article": "a",
		"tags": ["supplies"]
	},
	{
		"name": "tent",
		"plural": "tents",
		"article": "a",
		"tags": ["supplies", "tent"]
	},
	{
		"name": "coil of rope",
		"plural": "coils of rope",
		"article": "a",
		"tags": ["supplies", "rope"]
	},
	{
		"name": "sleeping bag",
		"plural": "sleeping bags",
		"article": "a",
		"tags": ["supplies"]
	},
	{
		"name": "wilderness survival kit",
		"plural": "wilderness survival kits",
		"article": "a",
		"tags": ["medicine", "supplies", "small"]
	},
	{
		"name": "FREE IPAD!!!1!",
		"plural": "FREE IPADS!!1!!",
		"article": "a",
		"tags": ["IPAD", "small"]
	},
	{
		"name": "instant coffee",
		"plural": "instant coffee",
		"article": "some",
		"tags": ["supplies", "small", "potable"]
	},
	{
		"name": "bottle of apple cider",
		"plural": "bottles of apple cider",
		"article": "a",
		"tags": ["supplies", "small", "potable"]
	},
	{
		"name": "rotisserie chicken",
		"plural": "rotisserie chickens",
		"article": "a whole",
		"tags": ["supplies", "edible"]
	},
	{
		"name": "box of macaroni and cheese",
		"plural": "boxes of macaroni and cheese",
		"article": "a",
		"tags": ["supplies", "edible", "macaroni and cheese"]
	},
	{
		"name": "California",
		"plural": "multiple Californias",
		"article": "the state of",
		"tags": ["flammable"]
	},
	{
		"name": "bag of goldfish crackers",
		"plural": "bags of goldfish crackers",
		"article": "a",
		"tags": ["supplies", "edible"]
	},
	{
		"name": "baby phoenix",
		"plural": "baby phoenixes",
		"article": "a",
		"tags": ["flammable"]
	},
	{
		"name": "box of cheerios",
		"plural": "boxes of cheerios",
		"article": "a",
		"tags": ["supplies", "edible", "cheerios"]
	},
	{
		"name": "PARTRIDGE IN A PEAR TREE",
		"plural": "TWO TURTLEDOVES",
		"article": "A",
		"tags": ["tree forage", "supplies"]
	},
	{

		"name": "chocolate milk",
		"plural": "chocolate milks",
		"article": "a",
		"tags": ["chocolate rain", "potable"]
	},
	{
		"name": "pillowcase",
		"plural": "pillowcases",
		"article": "a",
		"tags": ["supplies", "small", "pillowcase"]
	},
	{
		"name": "kite",
		"plural": "kites",
		"article": "a",
		"tags": ["supplies", "kite"]
	},
	{
		"name": "Capri Sun fruit drink pouch",
		"plural": "Capri Sun fruit drink pouches",
		"article": "a",
		"tags": ["capri sun", "small", "potable"]
	},
	{
		"name": "pepperoni pizza Lunchable",
		"plural": "pepperoni pizza Lunchables",
		"article": "a",
		"tags": ["lunchable", "small", "edible"]
	},
	{
		"name": "bunch of poisonous leaves",
		"plural": "bunches of poisonous leaves",
		"article": "a",
		"tags": ["forage", "small", "poison"]
	},
	{
		"name": "bunch of strange leaves",
		"plural": "bunches of strange leaves",
		"article": "a",
		"tags": ["forage", "small", "unidentified", "poison"]
	},
	{
		"name": "bunch of strange leaves",
		"plural": "bunches of strange leaves",
		"article": "a",
		"tags": ["forage", "small", "unidentified", "weed"]
	},
	{
		"name": "cabbage",
		"plural": "cabbages",
		"article": "a",
		"tags": ["supplies", "edible", "cabbage"]
	},
	{
		"name": "mug of cocoa",
		"plural": "mugs of cocoa",
		"article": "a",
		"tags": ["holiday", "small", "potable"]
	},
	{
		"name": "plum pudding",
		"plural": "plum puddings",
		"article": "a",
		"tags": ["holiday", "edible"],
		"anyTagAllowed": false
	},
	{
		"name": "holiday sweater",
		"plural": "holiday sweaters",
		"article": "a",
		"tags": ["holiday", "supplies", "handmade"],
		"anyTagAllowed": false
	},
	{
		"name": "holiday hat",
		"plural": "holiday hats",
		"article": "a",
		"tags": ["holiday", "supplies", "handmade"],
		"anyTagAllowed": false
	},
	{
		"name": "holiday scarf",
		"plural": "holiday scarves",
		"article": "a",
		"tags": ["holiday", "supplies", "handmade"],
		"anyTagAllowed": false
	},
	{
		"name": "Jinglemas fanfiction",
		"plural": "Jinglemas fanfictions",
		"article": "a",
		"tags": ["holiday", "supplies", "handmade"],
		"anyTagAllowed": false
	},
	{
		"name": "gift-wrapped present",
		"plural": "gift-wrapped presents",
		"article": "a",
		"tags": ["holiday", "dirtjar", "supplies"],
		"anyTagAllowed": false
	},
	{
		"name": "candy cane",
		"plural": "candy canes",
		"article": "a",
		"tags": ["holiday", "edible", "small"]
	},
	{
		"name": "mug of spiced cider",
		"plural": "mugs of spiced cider",
		"article": "a",
		"tags": ["holiday", "potable", "supplies"]
	},
	{
		"name": "mug of mulled wine",
		"plural": "mugs of mulled wine",
		"article": "a",
		"tags": ["holiday", "potable", "supplies"]
	}
]
